%YAML 1.1
%TAG !u! tag:unity3d.com,2011:
--- !u!114 &11400000
MonoBehaviour:
  m_ObjectHideFlags: 0
  m_CorrespondingSourceObject: {fileID: 0}
  m_PrefabInstance: {fileID: 0}
  m_PrefabAsset: {fileID: 0}
  m_GameObject: {fileID: 0}
  m_Enabled: 1
  m_EditorHideFlags: 0
  m_Script: {fileID: 11500000, guid: 1c17166af48f1224c93be143b9017bb2, type: 3}
  m_Name: Window 2
  m_EditorClassIdentifier: 
  _id: Window 2
  _windowPrefab: {fileID: -4446988249504373994, guid: 4cbf2bd085908aa4f8b366b34d3d83d2, type: 3}
